{
"reload_style_on_change": true,
"layer": "bottom",
"fixed-center": true,
"dwl/tags":{
	"num-tags": 11,
	"tag-labels": ["1","2","3","4","5","6","7","8","9","K","-"],
	"disable-click": true,
},
"dwl/window":{
	"format": "{layout} [{app_id}] {title}",
	"icon": true,
	"icon-size": 16,
	"tooltip": false,
},
"privacy":{
	"icon-spacing": 4,
	"icon-size": 12,
	"transition-duration": 250,
	"modules": [
		{
			"type": "screenshare",
			"tooltip": false,
		},
		{
			"type": "audio-out",
			"tooltip": false,
		},
		{
			"type": "audio-in",
			"tooltip": false,
		}
	]
},
"custom/mullvad":{
	"interval": 5,
	"exec":"curl https://am.i.mullvad.net/country || echo Error",
	"format": "IP:{}",
	"tooltip": false,
},
"pulseaudio": {
	"format": "VOL:{volume}% {format_source}",
	"format-muted": "VOL:{volume}%[M] {format_source}",
	"format-source": "MIC:{volume}%",
	"format-source-muted": "MIC:{volume}%[M]",
	"tooltip": false,
},
"cpu": {
	"interval": 1,
	"format": "CPU:{usage}% - AVG:{avg_frequency}GHz MAX:{max_frequency}GHz MIN:{min_frequency}GHz - LOAD:{load}",
	"tooltip": false,
        "states": {
    	    	"warning": 80,
        	"critical": 99,
	},
},
"memory": {
	"interval": 1,
	"format": "MEM:{}%",
	"tooltip": false,
},
"battery": {
	"interval": 1,
	"format": "BAT:{capacity}%",
	"format-charging": "BAT:{capacity}%=C",
	"tooltip": false,
},
"tray": {
	"spacing": 5,
	"tooltip": false,
},
"custom/binclock": {
	"interval": 1,
	"exec": "~/.config/waybar/custom/binclock.sh",
	"tooltip": false,
},
"custom/binclock-vertical": {
	"interval": 1,
	"exec": "~/.config/waybar/custom/binclock.sh",
	"rotate": 270,
	"tooltip": false,
},

"clock": {
	"interval": 1,
	"format": "{:%d/%m/%Y - %H:%M:%S UTC%Ez %Z}",
	"tooltip-format": "{calendar}",
	"tooltip": true,
	"locale": "fr_BE.UTF-8",
	"timezones": ["Europe/Brussels", "Asia/Riyadh", "UTC"],
	"calendar": {
                    "mode"          : "year",
                    "mode-mon-col"  : 3,
                    "weeks-pos"     : "right",
                    "on-scroll"     : 1,
                    "format": {
                              "months":     "<span color='#ffead3'>{}</span>",
                              "days":       "<span color='#ecc6d9'>{}</span>",
                              "weeks":      "<span color='#99ffdd'>{}</span>",
                              "weekdays":   "<span color='#ffcc66'>{}</span>",
                              "today":      "<span color='#ff6699'><u>{}</u></span>"
		    },
	},
	"actions":  {
                    "on-click": "tz_up",
	},
},
"custom/randomcjk": {
	"interval": 1,
	"exec": "shuf ~/.config/waybar/custom/cjkchars.txt -n 12 | tr -d '\n' | sed 's/./& /g'",
	"format": " {}",
	"tooltip": false,
	"rotate": 270,
},
"custom/xwayland": {
	"interval": 1,
	"exec": "for f in $(xlsclients -a | cut -d ' ' -f3-) ; do echo '['$f']' ; done | xargs",
	"format": "XWayland:{}",
	"tooltip": false,
},
"network": {
	"interval": 2,
	"format": "IF:{ifname} IP:{ipaddr}/{cidr} DOWN:{bandwidthDownBytes} UP:{bandwidthUpBytes}",

	"format-wifi": "IF:{ifname} IP:{ipaddr}/{cidr} SSID:{essid}@{frequency}GHz {signalStrength} {signaldBm} DOWN:{bandwidthDownBytes} UP:{bandwidthUpBytes}",
	"tooltip": false,
},
"disk#root": {
	"path": "/",
	"format": "/:{percentage_used}%",
	"tooltip": false,
},
"disk#efi": {
	"path": "/efi",
	"format": "/efi:{percentage_used}%",
	"tooltip": false,
},
"disk#nas": {
	"path": "/mnt/nas",
	"format": "/mnt/nas:{percentage_used}%",
	"tooltip": false,
},

"disk#cryptdrive": {
	"path": "~/CryptDrive",
	"format": "CryptDrive:{percentage_used}%",
	"tooltip": false,
}
}


}
